…
```r
library(devtools)
install_github("heathermkrause/WWC")
```

## Examples

This package contains a simulated survey called `texassurvey` that contains 1000 respondents that have answered a yes/no question. This example survey is *biased*, meaning that the population in the survey does not match the true population in Texas. It has different proportions with respect to sex and race/ethnicity compared to the real population in Texas (2010-2014 5-year ACS population estimates). What does this survey look like?


```r
library(WWC)
texassurvey
#> # A tibble: 1,000 x 5
#>       sex                       raceethnicity            age
#>     <chr>                               <chr>          <chr>
#> 1    Male WHITE ALONE, NOT HISPANIC OR LATINO 35 to 44 years
#> 2  Female                         ASIAN ALONE 20 to 24 years
#> 3  Female WHITE ALONE, NOT HISPANIC OR LATINO 65 to 74 years
#> 4  Female WHITE ALONE, NOT HISPANIC OR LATINO 20 to 24 years
#> 5    Male WHITE ALONE, NOT HISPANIC OR LATINO 20 to 24 years
#> 6    Male WHITE ALONE, NOT HISPANIC OR LATINO 25 to 29 years
#> 7    Male WHITE ALONE, NOT HISPANIC OR LATINO 75 to 84 years
#> 8  Female WHITE ALONE, NOT HISPANIC OR LATINO 35 to 44 years
#> 9    Male WHITE ALONE, NOT HISPANIC OR LATINO 65 to 74 years
#> 10 Female WHITE ALONE, NOT HISPANIC OR LATINO 55 to 64 years
#>                                      education response
#>                                          <chr>    <chr>
#> 1                  Bachelor's degree or higher       no
#> 2                  Bachelor's degree or higher       no
#> 3                Less than high school diploma       no
#> 4  High school graduate (includes equivalency)       no
#> 5           Some college or associate's degree       no
#> 6           Some college or associate's degree       no
#> 7  High school graduate (includes equivalency)       no
#> 8                  Bachelor's degree or higher      yes
#> 9  High school graduate (includes equivalency)       no
#> 10          Some college or associate's degree      yes
#> # ... with 990 more rows
```
…
Instead, the Veracio survey tool can be used to statistically weight each survey respondent relative to what proportion of Texas' real population he or she represents.


```r
weighted <- weight_wwc(texassurvey, TX, sex, raceethnicity)
weighted
#> # A tibble: 1,000 x 6
#>       sex                       raceethnicity            age
#>     <chr>                               <chr>          <chr>
#> 1    Male WHITE ALONE, NOT HISPANIC OR LATINO 35 to 44 years
#> 2  Female                         ASIAN ALONE 20 to 24 years
#> 3  Female WHITE ALONE, NOT HISPANIC OR LATINO 65 to 74 years
#> 4  Female WHITE ALONE, NOT HISPANIC OR LATINO 20 to 24 years
#> 5    Male WHITE ALONE, NOT HISPANIC OR LATINO 20 to 24 years
#> 6    Male WHITE ALONE, NOT HISPANIC OR LATINO 25 to 29 years
#> 7    Male WHITE ALONE, NOT HISPANIC OR LATINO 75 to 84 years
#> 8  Female WHITE ALONE, NOT HISPANIC OR LATINO 35 to 44 years
#> 9    Male WHITE ALONE, NOT HISPANIC OR LATINO 65 to 74 years
#> 10 Female WHITE ALONE, NOT HISPANIC OR LATINO 55 to 64 years
#>                                      education response    weight
#>                                          <chr>    <chr>     <dbl>
#> 1                  Bachelor's degree or higher       no 0.5445805
#> 2                  Bachelor's degree or higher       no 3.7007638
#> 3                Less than high school diploma       no 0.6192636
#> 4  High school graduate (includes equivalency)       no 0.6192636
#> 5           Some college or associate's degree       no 0.5445805
#> 6           Some college or associate's degree       no 0.5445805
#> 7  High school graduate (includes equivalency)       no 0.5445805
#> 8                  Bachelor's degree or higher      yes 0.6192636
#> 9  High school graduate (includes equivalency)       no 0.5445805
#> 10          Some college or associate's degree      yes 0.6192636
#> # ... with 990 more rows
```
…
