…
A user of the Veracio tool sets up a survey via the website that s/he can share with members of a community. The survey will always include demographic questions, such as sex, race/ethnicity, education, and/or age, because the Veracio tool works by statistically weighting survey respondents by how much of the population they represent. During the survey period, responses are stored. At the end of the survey period, all the survey responses are ready to be analyzed.

The R package has several example surveys; let's use one that is stored as a `.csv` file, since that is how it is used in production. This simulated survey is *biased*, meaning that the population in the survey does not match the true population in the two states (TX and CA) where it is simulated. It has different proportions with respect to sex and race/ethnicity compared to the real population (2010-2014 5-year ACS population estimates). 


```r
library(readr)
survey <- read_csv(system.file("extdata/twostatessurvey.csv", package = "WWC"))

survey
```

```
## # A tibble: 1,000 × 6
##      sex                       raceethnicity               age
##    <chr>                               <chr>             <chr>
## 1   Male WHITE ALONE, NOT HISPANIC OR LATINO    45 to 64 years
## 2   Male WHITE ALONE, NOT HISPANIC OR LATINO    25 to 44 years
## 3   Male WHITE ALONE, NOT HISPANIC OR LATINO    25 to 44 years
## 4   Male WHITE ALONE, NOT HISPANIC OR LATINO 65 years and over
## 5   Male                         ASIAN ALONE    45 to 64 years
## 6   Male WHITE ALONE, NOT HISPANIC OR LATINO    25 to 44 years
## 7   Male                  HISPANIC OR LATINO    45 to 64 years
## 8   Male                         ASIAN ALONE    45 to 64 years
## 9   Male WHITE ALONE, NOT HISPANIC OR LATINO    25 to 44 years
## 10  Male WHITE ALONE, NOT HISPANIC OR LATINO 65 years and over
## # ... with 990 more rows, and 3 more variables: education <chr>,
## #   geography <chr>, response <int>
```
…
## Reporting post-stratification weights

The function `choose_best_weighting` also saves a `.csv` of the original survey data with two new columns added. (Depending on how many different geographical regions are included in the survey, the survey respondents and columns may be in a different order in the output than in the input.)


```r
weighted <- read_csv("./wwc_weighted.csv")

weighted
```


```
## # A tibble: 1,498 × 8
##    geography    sex                       raceethnicity               age
##        <chr>  <chr>                               <chr>             <chr>
## 1         CA   Male WHITE ALONE, NOT HISPANIC OR LATINO    45 to 64 years
## 2         CA   Male WHITE ALONE, NOT HISPANIC OR LATINO    25 to 44 years
## 3         CA   Male                  HISPANIC OR LATINO    45 to 64 years
## 4         CA   Male                         ASIAN ALONE    45 to 64 years
## 5         CA   Male WHITE ALONE, NOT HISPANIC OR LATINO 65 years and over
## 6         CA   Male WHITE ALONE, NOT HISPANIC OR LATINO    45 to 64 years
## 7         CA   Male                               OTHER    18 to 24 years
## 8         CA   Male                  HISPANIC OR LATINO    45 to 64 years
## 9         CA Female WHITE ALONE, NOT HISPANIC OR LATINO    25 to 44 years
## 10        CA Female WHITE ALONE, NOT HISPANIC OR LATINO    45 to 64 years
## # ... with 1,488 more rows, and 4 more variables: education <chr>,
## #   response <int>, weight_best <dbl>, weight_all <dbl>
```

There are two weights reported in the output. One is called `weight_best`; this is the weight for each survey respondent found using the set of weighting indicators identified by bootstrap resampling. The other is called `weight_all`; this weight for each survey respondent is found by using all the weighting indicators possible from the demographic questions posed on the survey. It is possible for these weights to be the same if the best set of weighting indicators is in fact all the demographic questions posed on the survey.


```r
library(dplyr)

weighted %>% 
        select(contains("weight"))
```

```
## # A tibble: 1,498 × 2
##    weight_best weight_all
##          <dbl>      <dbl>
## 1    0.6812547  0.5969613
## 2    0.6812547  0.5558195
## 3    2.2389717  0.7925856
## 4    7.5486263  4.8997215
## 5    0.6812547  0.5409507
## 6    0.6812547  0.5969613
## 7    0.5298126  0.3975543
## 8    2.2389717  0.7925856
## 9    1.0688964  0.8015454
## 10   1.0688964  0.9559243
## # ... with 1,488 more rows
```
…
